0.001
0.003
0.005
0.007
0.009
0.011
0.013
0.015
0.017
0.019
0.021
0.023
0.025
0.027
0.029
0.031
0.033
0.035
0.037
0.039
0.041
0.043
0.045
0.047
0.049
0.051
0.053
0.055
0.057
0.059
0.061
0.063
0.065
0.067
0.069
0.071
0.073
0.075
0.077
0.079
0.081
0.083
0.085
0.087
0.089
0.091
0.093
0.095
0.097
0.099
0.101
0.103
0.105
0.107
0.109
0.111
0.113
0.115
0.117
0.119
0.121
0.123
0.125
0.127
0.129
0.131
0.133
0.135
0.137
0.139
0.141
0.143
0.145
0.147
0.149
0.151
0.153
0.155
0.157
0.159
0.161
0.163
0.165
0.167
0.169
0.171
0.173
0.175
0.177
0.179
0.181
0.183
0.185
0.187
0.189
0.191
0.193
0.195
0.197
0.199
0.201
0.203
0.205
0.207
0.209
0.211
0.213
0.215
0.217
0.219
0.221
0.223
0.225
0.227
0.229
0.231
0.233
0.235
0.237
0.239
0.241
0.243
0.245
0.247
0.249
0.251
0.253
0.255
0.257
0.259
0.261
0.263
0.265
0.267
0.269
0.271
0.273
0.275
0.277
0.279
0.281
0.283
0.285
0.287
0.289
0.291
0.293
0.295
0.297
0.299
0.301
0.303
0.305
0.307
0.309
0.311
0.313
0.315
0.317
0.319
0.321
0.323
0.325
0.327
0.329
0.331
0.333
0.335
0.337
0.339
0.341
0.343
0.345
0.347
0.349
0.351
0.353
0.355
0.357
0.359
0.361
0.363
0.365
0.367
0.369
0.371
0.373
0.375
0.377
0.379
0.381
0.383
0.385
0.387
0.389
0.391
0.393
0.395
0.397
0.399
0.401
0.403
0.405
0.407
0.409
0.411
0.413
0.415
0.417
0.419
0.421
0.423
0.425
0.427
0.429
0.431
0.433
0.435
0.437
0.439
0.441
0.443
0.445
0.447
0.449
0.451
0.453
0.455
0.457
0.459
0.461
0.463
0.465
0.467
0.469
0.471
0.473
0.475
0.477
0.479
0.481
0.483
0.485
0.487
0.489
0.491
0.493
0.495
0.497
0.499
0.501
0.503
0.505
0.507
0.509
0.511
0.513
0.515
0.517
0.519
0.521
0.523
0.525
0.527
0.529
0.531
0.533
0.535
0.537
0.539
0.541
0.543
0.545
0.547
0.549
0.551
0.553
0.555
0.557
0.559
0.561
0.563
0.565
0.567
0.569
0.571
0.573
0.575
0.577
0.579
0.581
0.583
0.585
0.587
0.589
0.591
0.593
0.595
0.597
0.599
0.601
0.603
0.605
0.607
0.609
0.611
0.613
0.615
0.617
0.619
0.621
0.623
0.625
0.627
0.629
0.631
0.633
0.635
0.637
0.639
0.641
0.643
0.645
0.647
0.649
0.651
0.653
0.655
0.657
0.659
0.661
0.663
0.665
0.667
0.669
0.671
0.673
0.675
0.677
0.679
0.681
0.683
0.685
0.687
0.689
0.691
0.693
0.695
0.697
0.699
0.701
0.703
0.705
0.707
0.709
0.711
0.713
0.715
0.717
0.719
0.721
0.723
0.725
0.727
0.729
0.731
0.733
0.735
0.737
0.739
0.741
0.743
0.745
0.747
0.749
0.751
0.753
0.755
0.757
0.759
0.761
0.763
0.765
0.767
0.769
0.771
0.773
0.775
0.777
0.779
0.781
0.783
0.785
0.787
0.789
0.791
0.793
0.795
0.797
0.799
0.801
0.803
0.805
0.807
0.809
0.811
0.813
0.815
0.817
0.819
0.821
0.823
0.825
0.827
0.829
0.831
0.833
0.835
0.837
0.839
0.841
0.843
0.845
0.847
0.849
0.851
0.853
0.855
0.857
0.859
0.861
0.863
0.865
0.867
0.869
0.871
0.873
0.875
0.877
0.879
0.881
0.883
0.885
0.887
0.889
0.891
0.893
0.895
0.897
0.899
0.901
0.903
0.905
0.907
0.909
0.911
0.913
0.915
0.917
0.919
0.921
0.923
0.925
0.927
0.929
0.931
0.933
0.935
0.937
0.939
0.941
0.943
0.945
0.947
0.949
0.951
0.953
0.955
0.957
0.959
0.961
0.963
0.965
0.967
0.969
0.971
0.973
0.975
0.977
0.979
0.981
0.983
0.985
0.987
0.989
0.991
0.993
0.995
0.997
0.999
1.001
1.003
1.005
1.007
1.009
1.011
1.013
1.015
1.017
1.019
1.021
1.023
1.025
1.027
1.029
1.031
1.033
1.035
1.037
1.039
1.041
1.043
1.045
1.047
1.049
1.051
1.053
1.055
1.057
1.059
1.061
1.063
1.065
1.067
1.069
1.071
1.073
1.075
1.077
1.079
1.081
1.083
1.085
1.087
1.089
1.091
1.093
1.095
1.097
1.099
1.101
1.103
1.105
1.107
1.109
1.111
1.113
1.115
1.117
1.119
1.121
1.123
1.125
1.127
1.129
1.131
1.133
1.135
1.137
1.139
1.141
1.143
1.145
1.147
1.149
1.151
1.153
1.155
1.157
1.159
1.161
1.163
1.165
1.167
1.169
1.171
1.173
1.175
1.177
1.179
1.181
1.183
1.185
1.187
1.189
1.191
1.193
1.195
1.197
1.199
1.201
1.203
1.205
1.207
1.209
1.211
1.213
1.215
1.217
1.219
1.221
1.223
1.225
1.227
1.229
1.231
1.233
1.235
1.237
1.239
1.241
1.243
1.245
1.247
1.249
1.251
1.253
1.255
1.257
1.259
1.261
1.263
1.265
1.267
1.269
1.271
1.273
1.275
1.277
1.279
1.281
1.283
1.285
1.287
1.289
1.291
1.293
1.295
1.297
1.299
1.301
1.303
1.305
1.307
1.309
1.311
1.313
1.315
1.317
1.319
1.321
1.323
1.325
1.327
1.329
1.331
1.333
1.335
1.337
1.339
1.341
1.343
1.345
1.347
1.349
1.351
1.353
1.355
1.357
1.359
1.361
1.363
1.365
1.367
1.369
1.371
1.373
1.375
1.377
1.379
1.381
1.383
1.385
1.387
1.389
1.391
1.393
1.395
1.397
1.399
1.401
1.403
1.405
1.407
1.409
1.411
1.413
1.415
1.417
1.419
1.421
1.423
1.425
1.427
1.429
1.431
1.433
1.435
1.437
1.439
1.441
1.443
1.445
1.447
1.449
1.451
1.453
1.455
1.457
1.459
1.461
1.463
1.465
1.467
1.469
1.471
1.473
1.475
1.477
1.479
1.481
1.483
1.485
1.487
1.489
1.491
1.493
1.495
1.497
1.499
1.501
1.503
1.505
1.507
1.509
1.511
1.513
1.515
1.517
1.519
1.521
1.523
1.525
1.527
1.529
1.531
1.533
1.535
1.537
1.539
1.541
1.543
1.545
1.547
1.549
1.551
1.553
1.555
1.557
1.559
1.561
1.563
1.565
1.567
1.569
1.571
1.573
1.575
1.577
1.579
1.581
1.583
1.585
1.587
1.589
1.591
1.593
1.595
1.597
1.599
1.601
1.603
1.605
1.607
1.609
1.611
1.613
1.615
1.617
1.619
1.621
1.623
1.625
1.627
1.629
1.631
1.633
1.635
1.637
1.639
1.641
1.643
1.645
1.647
1.649
1.651
1.653
1.655
1.657
1.659
1.661
1.663
1.665
1.667
1.669
1.671
1.673
1.675
1.677
1.679
1.681
1.683
1.685
1.687
1.689
1.691
1.693
1.695
1.697
1.699
1.701
1.703
1.705
1.707
1.709
1.711
1.713
1.715
1.717
1.719
1.721
1.723
1.725
1.727
1.729
1.731
1.733
1.735
1.737
1.739
1.741
1.743
1.745
1.747
1.749
1.751
1.753
1.755
1.757
1.759
1.761
1.763
1.765
1.767
1.769
1.771
1.773
1.775
1.777
1.779
1.781
1.783
1.785
1.787
1.789
1.791
1.793
1.795
1.797
1.799
1.801
1.803
1.805
1.807
1.809
1.811
1.813
1.815
1.817
1.819
1.821
1.823
1.825
1.827
1.829
1.831
1.833
1.835
1.837
1.839
1.841
1.843
1.845
1.847
1.849
1.851
1.853
1.855
1.857
1.859
1.861
1.863
1.865
1.867
1.869
1.871
1.873
1.875
1.877
1.879
1.881
1.883
1.885
1.887
1.889
1.891
1.893
1.895
1.897
1.899
1.901
1.903
1.905
1.907
1.909
1.911
1.913
1.915
1.917
1.919
1.921
1.923
1.925
1.927
1.929
1.931
1.933
1.935
1.937
1.939
1.941
1.943
1.945
1.947
1.949
1.951
1.953
1.955
1.957
1.959
1.961
1.963
1.965
1.967
1.969
1.971
1.973
1.975
1.977
1.979
1.981
1.983
1.985
1.987
1.989
1.991
1.993
1.995
1.997
1.999