  1.00000000E-04
  1.15478198E-04
  1.33352143E-04
  1.53992653E-04
  1.77827941E-04
  2.05352503E-04
  2.37137371E-04
  2.73841963E-04
  3.16227766E-04
  3.65174127E-04
  4.21696503E-04
  4.86967525E-04
  5.62341325E-04
  6.49381632E-04
  7.49894209E-04
  8.65964323E-04
  1.00000000E-03
  1.15478198E-03
  1.33352143E-03
  1.53992653E-03
  1.77827941E-03
  2.05352503E-03
  2.37137371E-03
  2.73841963E-03
  3.16227766E-03
  3.65174127E-03
  4.21696503E-03
  4.86967525E-03
  5.62341325E-03
  6.49381632E-03
  7.49894209E-03
  8.65964323E-03
  1.00000000E-02
  1.15478198E-02
  1.33352143E-02
  1.53992653E-02
  1.77827941E-02
  2.05352503E-02
  2.37137371E-02
  2.73841963E-02
  3.16227766E-02
  3.65174127E-02
  4.21696503E-02
  4.86967525E-02
  5.62341325E-02
  6.49381632E-02
  7.49894209E-02
  8.65964323E-02
  0.10000000    
  0.11547820    
  0.13335214    
  0.15399265    
  0.17782794    
  0.20535250    
  0.23713737    
  0.27384196    
  0.31622777    
  0.36517413    
  0.42169650    
  0.48696753    
  0.56234133    
  0.64938163    
  0.74989421    
  0.86596432    
   1.0000000    
   1.1547820    
   1.3335214    
   1.5399265    
   1.7782794    
   2.0535250    
   2.3713737    
   2.7384196    
   3.1622777    
   3.6517413    
   4.2169650    
   4.8696753    
   5.6234133    
   6.4938163    
   7.4989421    
   8.6596432    
   10.000000    
   11.547820    
   13.335214    
   15.399265    
   17.782794    
   20.535250    
   23.713737    
   27.384196    
   31.622777    
   36.517413    
   42.169650    
   48.696753    
   56.234133    
   64.938163    
   74.989421    
   86.596432    
   100.00000    
