%!PS-Adobe-2.0 EPSF-2.0
%%Title: plot.eps
%%Creator: gnuplot 4.4 patchlevel 4
%%CreationDate: Wed Feb 22 10:38:31 2012
%%DocumentFonts: (atend)
%%BoundingBox: 50 50 410 302
%%EndComments
%%BeginProlog
/gnudict 256 dict def
gnudict begin
%
% The following true/false flags may be edited by hand if desired.
% The unit line width and grayscale image gamma correction may also be changed.
%
/Color true def
/Blacktext false def
/Solid false def
/Dashlength 1 def
/Landscape false def
/Level1 false def
/Rounded false def
/ClipToBoundingBox false def
/TransparentPatterns false def
/gnulinewidth 5.000 def
/userlinewidth gnulinewidth def
/Gamma 1.0 def
%
/vshift -60 def
/dl1 {
  10.0 Dashlength mul mul
  Rounded { currentlinewidth 0.75 mul sub dup 0 le { pop 0.01 } if } if
} def
/dl2 {
  10.0 Dashlength mul mul
  Rounded { currentlinewidth 0.75 mul add } if
} def
/hpt_ 31.5 def
/vpt_ 31.5 def
/hpt hpt_ def
/vpt vpt_ def
Level1 {} {
/SDict 10 dict def
systemdict /pdfmark known not {
  userdict /pdfmark systemdict /cleartomark get put
} if
SDict begin [
  /Title (plot.eps)
  /Subject (gnuplot plot)
  /Creator (gnuplot 4.4 patchlevel 4)
  /Author (mar)
%  /Producer (gnuplot)
%  /Keywords ()
  /CreationDate (Wed Feb 22 10:38:31 2012)
  /DOCINFO pdfmark
end
} ifelse
/doclip {
  ClipToBoundingBox {
    newpath 50 50 moveto 410 50 lineto 410 302 lineto 50 302 lineto closepath
    clip
  } if
} def
%
% Gnuplot Prolog Version 4.4 (August 2010)
%
%/SuppressPDFMark true def
%
/M {moveto} bind def
/L {lineto} bind def
/R {rmoveto} bind def
/V {rlineto} bind def
/N {newpath moveto} bind def
/Z {closepath} bind def
/C {setrgbcolor} bind def
/f {rlineto fill} bind def
/g {setgray} bind def
/Gshow {show} def   % May be redefined later in the file to support UTF-8
/vpt2 vpt 2 mul def
/hpt2 hpt 2 mul def
/Lshow {currentpoint stroke M 0 vshift R 
	Blacktext {gsave 0 setgray show grestore} {show} ifelse} def
/Rshow {currentpoint stroke M dup stringwidth pop neg vshift R
	Blacktext {gsave 0 setgray show grestore} {show} ifelse} def
/Cshow {currentpoint stroke M dup stringwidth pop -2 div vshift R 
	Blacktext {gsave 0 setgray show grestore} {show} ifelse} def
/UP {dup vpt_ mul /vpt exch def hpt_ mul /hpt exch def
  /hpt2 hpt 2 mul def /vpt2 vpt 2 mul def} def
/DL {Color {setrgbcolor Solid {pop []} if 0 setdash}
 {pop pop pop 0 setgray Solid {pop []} if 0 setdash} ifelse} def
/BL {stroke userlinewidth 2 mul setlinewidth
	Rounded {1 setlinejoin 1 setlinecap} if} def
/AL {stroke userlinewidth 2 div setlinewidth
	Rounded {1 setlinejoin 1 setlinecap} if} def
/UL {dup gnulinewidth mul /userlinewidth exch def
	dup 1 lt {pop 1} if 10 mul /udl exch def} def
/PL {stroke userlinewidth setlinewidth
	Rounded {1 setlinejoin 1 setlinecap} if} def
3.8 setmiterlimit
% Default Line colors
/LCw {1 1 1} def
/LCb {0 0 0} def
/LCa {0 0 0} def
/LC0 {1 0 0} def
/LC1 {0 1 0} def
/LC2 {0 0 1} def
/LC3 {1 0 1} def
/LC4 {0 1 1} def
/LC5 {1 1 0} def
/LC6 {0 0 0} def
/LC7 {1 0.3 0} def
/LC8 {0.5 0.5 0.5} def
% Default Line Types
/LTw {PL [] 1 setgray} def
/LTb {BL [] LCb DL} def
/LTa {AL [1 udl mul 2 udl mul] 0 setdash LCa setrgbcolor} def
/LT0 {PL [] LC0 DL} def
/LT1 {PL [4 dl1 2 dl2] LC1 DL} def
/LT2 {PL [2 dl1 3 dl2] LC2 DL} def
/LT3 {PL [1 dl1 1.5 dl2] LC3 DL} def
/LT4 {PL [6 dl1 2 dl2 1 dl1 2 dl2] LC4 DL} def
/LT5 {PL [3 dl1 3 dl2 1 dl1 3 dl2] LC5 DL} def
/LT6 {PL [2 dl1 2 dl2 2 dl1 6 dl2] LC6 DL} def
/LT7 {PL [1 dl1 2 dl2 6 dl1 2 dl2 1 dl1 2 dl2] LC7 DL} def
/LT8 {PL [2 dl1 2 dl2 2 dl1 2 dl2 2 dl1 2 dl2 2 dl1 4 dl2] LC8 DL} def
/Pnt {stroke [] 0 setdash gsave 1 setlinecap M 0 0 V stroke grestore} def
/Dia {stroke [] 0 setdash 2 copy vpt add M
  hpt neg vpt neg V hpt vpt neg V
  hpt vpt V hpt neg vpt V closepath stroke
  Pnt} def
/Pls {stroke [] 0 setdash vpt sub M 0 vpt2 V
  currentpoint stroke M
  hpt neg vpt neg R hpt2 0 V stroke
 } def
/Box {stroke [] 0 setdash 2 copy exch hpt sub exch vpt add M
  0 vpt2 neg V hpt2 0 V 0 vpt2 V
  hpt2 neg 0 V closepath stroke
  Pnt} def
/Crs {stroke [] 0 setdash exch hpt sub exch vpt add M
  hpt2 vpt2 neg V currentpoint stroke M
  hpt2 neg 0 R hpt2 vpt2 V stroke} def
/TriU {stroke [] 0 setdash 2 copy vpt 1.12 mul add M
  hpt neg vpt -1.62 mul V
  hpt 2 mul 0 V
  hpt neg vpt 1.62 mul V closepath stroke
  Pnt} def
/Star {2 copy Pls Crs} def
/BoxF {stroke [] 0 setdash exch hpt sub exch vpt add M
  0 vpt2 neg V hpt2 0 V 0 vpt2 V
  hpt2 neg 0 V closepath fill} def
/TriUF {stroke [] 0 setdash vpt 1.12 mul add M
  hpt neg vpt -1.62 mul V
  hpt 2 mul 0 V
  hpt neg vpt 1.62 mul V closepath fill} def
/TriD {stroke [] 0 setdash 2 copy vpt 1.12 mul sub M
  hpt neg vpt 1.62 mul V
  hpt 2 mul 0 V
  hpt neg vpt -1.62 mul V closepath stroke
  Pnt} def
/TriDF {stroke [] 0 setdash vpt 1.12 mul sub M
  hpt neg vpt 1.62 mul V
  hpt 2 mul 0 V
  hpt neg vpt -1.62 mul V closepath fill} def
/DiaF {stroke [] 0 setdash vpt add M
  hpt neg vpt neg V hpt vpt neg V
  hpt vpt V hpt neg vpt V closepath fill} def
/Pent {stroke [] 0 setdash 2 copy gsave
  translate 0 hpt M 4 {72 rotate 0 hpt L} repeat
  closepath stroke grestore Pnt} def
/PentF {stroke [] 0 setdash gsave
  translate 0 hpt M 4 {72 rotate 0 hpt L} repeat
  closepath fill grestore} def
/Circle {stroke [] 0 setdash 2 copy
  hpt 0 360 arc stroke Pnt} def
/CircleF {stroke [] 0 setdash hpt 0 360 arc fill} def
/C0 {BL [] 0 setdash 2 copy moveto vpt 90 450 arc} bind def
/C1 {BL [] 0 setdash 2 copy moveto
	2 copy vpt 0 90 arc closepath fill
	vpt 0 360 arc closepath} bind def
/C2 {BL [] 0 setdash 2 copy moveto
	2 copy vpt 90 180 arc closepath fill
	vpt 0 360 arc closepath} bind def
/C3 {BL [] 0 setdash 2 copy moveto
	2 copy vpt 0 180 arc closepath fill
	vpt 0 360 arc closepath} bind def
/C4 {BL [] 0 setdash 2 copy moveto
	2 copy vpt 180 270 arc closepath fill
	vpt 0 360 arc closepath} bind def
/C5 {BL [] 0 setdash 2 copy moveto
	2 copy vpt 0 90 arc
	2 copy moveto
	2 copy vpt 180 270 arc closepath fill
	vpt 0 360 arc} bind def
/C6 {BL [] 0 setdash 2 copy moveto
	2 copy vpt 90 270 arc closepath fill
	vpt 0 360 arc closepath} bind def
/C7 {BL [] 0 setdash 2 copy moveto
	2 copy vpt 0 270 arc closepath fill
	vpt 0 360 arc closepath} bind def
/C8 {BL [] 0 setdash 2 copy moveto
	2 copy vpt 270 360 arc closepath fill
	vpt 0 360 arc closepath} bind def
/C9 {BL [] 0 setdash 2 copy moveto
	2 copy vpt 270 450 arc closepath fill
	vpt 0 360 arc closepath} bind def
/C10 {BL [] 0 setdash 2 copy 2 copy moveto vpt 270 360 arc closepath fill
	2 copy moveto
	2 copy vpt 90 180 arc closepath fill
	vpt 0 360 arc closepath} bind def
/C11 {BL [] 0 setdash 2 copy moveto
	2 copy vpt 0 180 arc closepath fill
	2 copy moveto
	2 copy vpt 270 360 arc closepath fill
	vpt 0 360 arc closepath} bind def
/C12 {BL [] 0 setdash 2 copy moveto
	2 copy vpt 180 360 arc closepath fill
	vpt 0 360 arc closepath} bind def
/C13 {BL [] 0 setdash 2 copy moveto
	2 copy vpt 0 90 arc closepath fill
	2 copy moveto
	2 copy vpt 180 360 arc closepath fill
	vpt 0 360 arc closepath} bind def
/C14 {BL [] 0 setdash 2 copy moveto
	2 copy vpt 90 360 arc closepath fill
	vpt 0 360 arc} bind def
/C15 {BL [] 0 setdash 2 copy vpt 0 360 arc closepath fill
	vpt 0 360 arc closepath} bind def
/Rec {newpath 4 2 roll moveto 1 index 0 rlineto 0 exch rlineto
	neg 0 rlineto closepath} bind def
/Square {dup Rec} bind def
/Bsquare {vpt sub exch vpt sub exch vpt2 Square} bind def
/S0 {BL [] 0 setdash 2 copy moveto 0 vpt rlineto BL Bsquare} bind def
/S1 {BL [] 0 setdash 2 copy vpt Square fill Bsquare} bind def
/S2 {BL [] 0 setdash 2 copy exch vpt sub exch vpt Square fill Bsquare} bind def
/S3 {BL [] 0 setdash 2 copy exch vpt sub exch vpt2 vpt Rec fill Bsquare} bind def
/S4 {BL [] 0 setdash 2 copy exch vpt sub exch vpt sub vpt Square fill Bsquare} bind def
/S5 {BL [] 0 setdash 2 copy 2 copy vpt Square fill
	exch vpt sub exch vpt sub vpt Square fill Bsquare} bind def
/S6 {BL [] 0 setdash 2 copy exch vpt sub exch vpt sub vpt vpt2 Rec fill Bsquare} bind def
/S7 {BL [] 0 setdash 2 copy exch vpt sub exch vpt sub vpt vpt2 Rec fill
	2 copy vpt Square fill Bsquare} bind def
/S8 {BL [] 0 setdash 2 copy vpt sub vpt Square fill Bsquare} bind def
/S9 {BL [] 0 setdash 2 copy vpt sub vpt vpt2 Rec fill Bsquare} bind def
/S10 {BL [] 0 setdash 2 copy vpt sub vpt Square fill 2 copy exch vpt sub exch vpt Square fill
	Bsquare} bind def
/S11 {BL [] 0 setdash 2 copy vpt sub vpt Square fill 2 copy exch vpt sub exch vpt2 vpt Rec fill
	Bsquare} bind def
/S12 {BL [] 0 setdash 2 copy exch vpt sub exch vpt sub vpt2 vpt Rec fill Bsquare} bind def
/S13 {BL [] 0 setdash 2 copy exch vpt sub exch vpt sub vpt2 vpt Rec fill
	2 copy vpt Square fill Bsquare} bind def
/S14 {BL [] 0 setdash 2 copy exch vpt sub exch vpt sub vpt2 vpt Rec fill
	2 copy exch vpt sub exch vpt Square fill Bsquare} bind def
/S15 {BL [] 0 setdash 2 copy Bsquare fill Bsquare} bind def
/D0 {gsave translate 45 rotate 0 0 S0 stroke grestore} bind def
/D1 {gsave translate 45 rotate 0 0 S1 stroke grestore} bind def
/D2 {gsave translate 45 rotate 0 0 S2 stroke grestore} bind def
/D3 {gsave translate 45 rotate 0 0 S3 stroke grestore} bind def
/D4 {gsave translate 45 rotate 0 0 S4 stroke grestore} bind def
/D5 {gsave translate 45 rotate 0 0 S5 stroke grestore} bind def
/D6 {gsave translate 45 rotate 0 0 S6 stroke grestore} bind def
/D7 {gsave translate 45 rotate 0 0 S7 stroke grestore} bind def
/D8 {gsave translate 45 rotate 0 0 S8 stroke grestore} bind def
/D9 {gsave translate 45 rotate 0 0 S9 stroke grestore} bind def
/D10 {gsave translate 45 rotate 0 0 S10 stroke grestore} bind def
/D11 {gsave translate 45 rotate 0 0 S11 stroke grestore} bind def
/D12 {gsave translate 45 rotate 0 0 S12 stroke grestore} bind def
/D13 {gsave translate 45 rotate 0 0 S13 stroke grestore} bind def
/D14 {gsave translate 45 rotate 0 0 S14 stroke grestore} bind def
/D15 {gsave translate 45 rotate 0 0 S15 stroke grestore} bind def
/DiaE {stroke [] 0 setdash vpt add M
  hpt neg vpt neg V hpt vpt neg V
  hpt vpt V hpt neg vpt V closepath stroke} def
/BoxE {stroke [] 0 setdash exch hpt sub exch vpt add M
  0 vpt2 neg V hpt2 0 V 0 vpt2 V
  hpt2 neg 0 V closepath stroke} def
/TriUE {stroke [] 0 setdash vpt 1.12 mul add M
  hpt neg vpt -1.62 mul V
  hpt 2 mul 0 V
  hpt neg vpt 1.62 mul V closepath stroke} def
/TriDE {stroke [] 0 setdash vpt 1.12 mul sub M
  hpt neg vpt 1.62 mul V
  hpt 2 mul 0 V
  hpt neg vpt -1.62 mul V closepath stroke} def
/PentE {stroke [] 0 setdash gsave
  translate 0 hpt M 4 {72 rotate 0 hpt L} repeat
  closepath stroke grestore} def
/CircE {stroke [] 0 setdash 
  hpt 0 360 arc stroke} def
/Opaque {gsave closepath 1 setgray fill grestore 0 setgray closepath} def
/DiaW {stroke [] 0 setdash vpt add M
  hpt neg vpt neg V hpt vpt neg V
  hpt vpt V hpt neg vpt V Opaque stroke} def
/BoxW {stroke [] 0 setdash exch hpt sub exch vpt add M
  0 vpt2 neg V hpt2 0 V 0 vpt2 V
  hpt2 neg 0 V Opaque stroke} def
/TriUW {stroke [] 0 setdash vpt 1.12 mul add M
  hpt neg vpt -1.62 mul V
  hpt 2 mul 0 V
  hpt neg vpt 1.62 mul V Opaque stroke} def
/TriDW {stroke [] 0 setdash vpt 1.12 mul sub M
  hpt neg vpt 1.62 mul V
  hpt 2 mul 0 V
  hpt neg vpt -1.62 mul V Opaque stroke} def
/PentW {stroke [] 0 setdash gsave
  translate 0 hpt M 4 {72 rotate 0 hpt L} repeat
  Opaque stroke grestore} def
/CircW {stroke [] 0 setdash 
  hpt 0 360 arc Opaque stroke} def
/BoxFill {gsave Rec 1 setgray fill grestore} def
/Density {
  /Fillden exch def
  currentrgbcolor
  /ColB exch def /ColG exch def /ColR exch def
  /ColR ColR Fillden mul Fillden sub 1 add def
  /ColG ColG Fillden mul Fillden sub 1 add def
  /ColB ColB Fillden mul Fillden sub 1 add def
  ColR ColG ColB setrgbcolor} def
/BoxColFill {gsave Rec PolyFill} def
/PolyFill {gsave Density fill grestore grestore} def
/h {rlineto rlineto rlineto gsave closepath fill grestore} bind def
%
% PostScript Level 1 Pattern Fill routine for rectangles
% Usage: x y w h s a XX PatternFill
%	x,y = lower left corner of box to be filled
%	w,h = width and height of box
%	  a = angle in degrees between lines and x-axis
%	 XX = 0/1 for no/yes cross-hatch
%
/PatternFill {gsave /PFa [ 9 2 roll ] def
  PFa 0 get PFa 2 get 2 div add PFa 1 get PFa 3 get 2 div add translate
  PFa 2 get -2 div PFa 3 get -2 div PFa 2 get PFa 3 get Rec
  gsave 1 setgray fill grestore clip
  currentlinewidth 0.5 mul setlinewidth
  /PFs PFa 2 get dup mul PFa 3 get dup mul add sqrt def
  0 0 M PFa 5 get rotate PFs -2 div dup translate
  0 1 PFs PFa 4 get div 1 add floor cvi
	{PFa 4 get mul 0 M 0 PFs V} for
  0 PFa 6 get ne {
	0 1 PFs PFa 4 get div 1 add floor cvi
	{PFa 4 get mul 0 2 1 roll M PFs 0 V} for
 } if
  stroke grestore} def
%
/languagelevel where
 {pop languagelevel} {1} ifelse
 2 lt
	{/InterpretLevel1 true def}
	{/InterpretLevel1 Level1 def}
 ifelse
%
% PostScript level 2 pattern fill definitions
%
/Level2PatternFill {
/Tile8x8 {/PaintType 2 /PatternType 1 /TilingType 1 /BBox [0 0 8 8] /XStep 8 /YStep 8}
	bind def
/KeepColor {currentrgbcolor [/Pattern /DeviceRGB] setcolorspace} bind def
<< Tile8x8
 /PaintProc {0.5 setlinewidth pop 0 0 M 8 8 L 0 8 M 8 0 L stroke} 
>> matrix makepattern
/Pat1 exch def
<< Tile8x8
 /PaintProc {0.5 setlinewidth pop 0 0 M 8 8 L 0 8 M 8 0 L stroke
	0 4 M 4 8 L 8 4 L 4 0 L 0 4 L stroke}
>> matrix makepattern
/Pat2 exch def
<< Tile8x8
 /PaintProc {0.5 setlinewidth pop 0 0 M 0 8 L
	8 8 L 8 0 L 0 0 L fill}
>> matrix makepattern
/Pat3 exch def
<< Tile8x8
 /PaintProc {0.5 setlinewidth pop -4 8 M 8 -4 L
	0 12 M 12 0 L stroke}
>> matrix makepattern
/Pat4 exch def
<< Tile8x8
 /PaintProc {0.5 setlinewidth pop -4 0 M 8 12 L
	0 -4 M 12 8 L stroke}
>> matrix makepattern
/Pat5 exch def
<< Tile8x8
 /PaintProc {0.5 setlinewidth pop -2 8 M 4 -4 L
	0 12 M 8 -4 L 4 12 M 10 0 L stroke}
>> matrix makepattern
/Pat6 exch def
<< Tile8x8
 /PaintProc {0.5 setlinewidth pop -2 0 M 4 12 L
	0 -4 M 8 12 L 4 -4 M 10 8 L stroke}
>> matrix makepattern
/Pat7 exch def
<< Tile8x8
 /PaintProc {0.5 setlinewidth pop 8 -2 M -4 4 L
	12 0 M -4 8 L 12 4 M 0 10 L stroke}
>> matrix makepattern
/Pat8 exch def
<< Tile8x8
 /PaintProc {0.5 setlinewidth pop 0 -2 M 12 4 L
	-4 0 M 12 8 L -4 4 M 8 10 L stroke}
>> matrix makepattern
/Pat9 exch def
/Pattern1 {PatternBgnd KeepColor Pat1 setpattern} bind def
/Pattern2 {PatternBgnd KeepColor Pat2 setpattern} bind def
/Pattern3 {PatternBgnd KeepColor Pat3 setpattern} bind def
/Pattern4 {PatternBgnd KeepColor Landscape {Pat5} {Pat4} ifelse setpattern} bind def
/Pattern5 {PatternBgnd KeepColor Landscape {Pat4} {Pat5} ifelse setpattern} bind def
/Pattern6 {PatternBgnd KeepColor Landscape {Pat9} {Pat6} ifelse setpattern} bind def
/Pattern7 {PatternBgnd KeepColor Landscape {Pat8} {Pat7} ifelse setpattern} bind def
} def
%
%
%End of PostScript Level 2 code
%
/PatternBgnd {
  TransparentPatterns {} {gsave 1 setgray fill grestore} ifelse
} def
%
% Substitute for Level 2 pattern fill codes with
% grayscale if Level 2 support is not selected.
%
/Level1PatternFill {
/Pattern1 {0.250 Density} bind def
/Pattern2 {0.500 Density} bind def
/Pattern3 {0.750 Density} bind def
/Pattern4 {0.125 Density} bind def
/Pattern5 {0.375 Density} bind def
/Pattern6 {0.625 Density} bind def
/Pattern7 {0.875 Density} bind def
} def
%
% Now test for support of Level 2 code
%
Level1 {Level1PatternFill} {Level2PatternFill} ifelse
%
/Symbol-Oblique /Symbol findfont [1 0 .167 1 0 0] makefont
dup length dict begin {1 index /FID eq {pop pop} {def} ifelse} forall
currentdict end definefont pop
/MFshow {
   { dup 5 get 3 ge
     { 5 get 3 eq {gsave} {grestore} ifelse }
     {dup dup 0 get findfont exch 1 get scalefont setfont
     [ currentpoint ] exch dup 2 get 0 exch R dup 5 get 2 ne {dup dup 6
     get exch 4 get {Gshow} {stringwidth pop 0 R} ifelse }if dup 5 get 0 eq
     {dup 3 get {2 get neg 0 exch R pop} {pop aload pop M} ifelse} {dup 5
     get 1 eq {dup 2 get exch dup 3 get exch 6 get stringwidth pop -2 div
     dup 0 R} {dup 6 get stringwidth pop -2 div 0 R 6 get
     show 2 index {aload pop M neg 3 -1 roll neg R pop pop} {pop pop pop
     pop aload pop M} ifelse }ifelse }ifelse }
     ifelse }
   forall} def
/Gswidth {dup type /stringtype eq {stringwidth} {pop (n) stringwidth} ifelse} def
/MFwidth {0 exch { dup 5 get 3 ge { 5 get 3 eq { 0 } { pop } ifelse }
 {dup 3 get{dup dup 0 get findfont exch 1 get scalefont setfont
     6 get Gswidth pop add} {pop} ifelse} ifelse} forall} def
/MLshow { currentpoint stroke M
  0 exch R
  Blacktext {gsave 0 setgray MFshow grestore} {MFshow} ifelse } bind def
/MRshow { currentpoint stroke M
  exch dup MFwidth neg 3 -1 roll R
  Blacktext {gsave 0 setgray MFshow grestore} {MFshow} ifelse } bind def
/MCshow { currentpoint stroke M
  exch dup MFwidth -2 div 3 -1 roll R
  Blacktext {gsave 0 setgray MFshow grestore} {MFshow} ifelse } bind def
/XYsave    { [( ) 1 2 true false 3 ()] } bind def
/XYrestore { [( ) 1 2 true false 4 ()] } bind def
end
%%EndProlog
gnudict begin
gsave
doclip
50 50 translate
0.050 0.050 scale
0 setgray
newpath
(Helvetica) findfont 180 scalefont setfont
1.000 UL
LTb
990 576 M
63 0 V
5822 0 R
-63 0 V
stroke
882 576 M
[ [(Helvetica) 180.0 0.0 true true 0 (-1000)]
] -60.0 MRshow
1.000 UL
LTb
990 1136 M
63 0 V
5822 0 R
-63 0 V
stroke
882 1136 M
[ [(Helvetica) 180.0 0.0 true true 0 ( 0)]
] -60.0 MRshow
1.000 UL
LTb
990 1697 M
63 0 V
5822 0 R
-63 0 V
stroke
882 1697 M
[ [(Helvetica) 180.0 0.0 true true 0 ( 1000)]
] -60.0 MRshow
1.000 UL
LTb
990 2257 M
63 0 V
5822 0 R
-63 0 V
stroke
882 2257 M
[ [(Helvetica) 180.0 0.0 true true 0 ( 2000)]
] -60.0 MRshow
1.000 UL
LTb
990 2818 M
63 0 V
5822 0 R
-63 0 V
stroke
882 2818 M
[ [(Helvetica) 180.0 0.0 true true 0 ( 3000)]
] -60.0 MRshow
1.000 UL
LTb
990 3378 M
63 0 V
5822 0 R
-63 0 V
stroke
882 3378 M
[ [(Helvetica) 180.0 0.0 true true 0 ( 4000)]
] -60.0 MRshow
1.000 UL
LTb
990 3939 M
63 0 V
5822 0 R
-63 0 V
stroke
882 3939 M
[ [(Helvetica) 180.0 0.0 true true 0 ( 5000)]
] -60.0 MRshow
1.000 UL
LTb
990 4499 M
63 0 V
5822 0 R
-63 0 V
stroke
882 4499 M
[ [(Helvetica) 180.0 0.0 true true 0 ( 6000)]
] -60.0 MRshow
1.000 UL
LTb
990 576 M
0 63 V
0 3860 R
0 -63 V
stroke
990 396 M
[ [(Helvetica) 180.0 0.0 true true 0 ( 1)]
] -60.0 MCshow
1.000 UL
LTb
1433 576 M
0 31 V
0 3892 R
0 -31 V
1692 576 M
0 31 V
0 3892 R
0 -31 V
1876 576 M
0 31 V
0 3892 R
0 -31 V
2018 576 M
0 31 V
0 3892 R
0 -31 V
2135 576 M
0 31 V
0 3892 R
0 -31 V
2233 576 M
0 31 V
0 3892 R
0 -31 V
2319 576 M
0 31 V
0 3892 R
0 -31 V
2394 576 M
0 31 V
0 3892 R
0 -31 V
2461 576 M
0 63 V
0 3860 R
0 -63 V
stroke
2461 396 M
[ [(Helvetica) 180.0 0.0 true true 0 ( 10)]
] -60.0 MCshow
1.000 UL
LTb
2904 576 M
0 31 V
0 3892 R
0 -31 V
3163 576 M
0 31 V
0 3892 R
0 -31 V
3347 576 M
0 31 V
0 3892 R
0 -31 V
3490 576 M
0 31 V
0 3892 R
0 -31 V
3606 576 M
0 31 V
0 3892 R
0 -31 V
3705 576 M
0 31 V
0 3892 R
0 -31 V
3790 576 M
0 31 V
0 3892 R
0 -31 V
3865 576 M
0 31 V
0 3892 R
0 -31 V
3933 576 M
0 63 V
0 3860 R
0 -63 V
stroke
3933 396 M
[ [(Helvetica) 180.0 0.0 true true 0 ( 100)]
] -60.0 MCshow
1.000 UL
LTb
4375 576 M
0 31 V
0 3892 R
0 -31 V
4634 576 M
0 31 V
0 3892 R
0 -31 V
4818 576 M
0 31 V
0 3892 R
0 -31 V
4961 576 M
0 31 V
0 3892 R
0 -31 V
5077 576 M
0 31 V
0 3892 R
0 -31 V
5176 576 M
0 31 V
0 3892 R
0 -31 V
5261 576 M
0 31 V
0 3892 R
0 -31 V
5336 576 M
0 31 V
0 3892 R
0 -31 V
5404 576 M
0 63 V
0 3860 R
0 -63 V
stroke
5404 396 M
[ [(Helvetica) 180.0 0.0 true true 0 ( 1000)]
] -60.0 MCshow
1.000 UL
LTb
5847 576 M
0 31 V
0 3892 R
0 -31 V
6106 576 M
0 31 V
0 3892 R
0 -31 V
6290 576 M
0 31 V
0 3892 R
0 -31 V
6432 576 M
0 31 V
0 3892 R
0 -31 V
6549 576 M
0 31 V
0 3892 R
0 -31 V
6647 576 M
0 31 V
0 3892 R
0 -31 V
6732 576 M
0 31 V
0 3892 R
0 -31 V
6808 576 M
0 31 V
0 3892 R
0 -31 V
6875 576 M
0 63 V
0 3860 R
0 -63 V
stroke
6875 396 M
[ [(Helvetica) 180.0 0.0 true true 0 ( 10000)]
] -60.0 MCshow
1.000 UL
LTb
1.000 UL
LTb
990 4499 N
990 576 L
5885 0 V
0 3923 V
-5885 0 V
Z stroke
LCb setrgbcolor
144 2537 M
currentpoint gsave translate -270 rotate 0 0 moveto
[ [(Helvetica) 180.0 0.0 true true 0 (l\(l+1\)C)]
[(Helvetica) 144.0 -54.0 true true 0 (l)]
[(Helvetica) 180.0 0.0 true true 0 ( \()]
[(Symbol) 180.0 0.0 true true 0 (m)]
[(Helvetica) 180.0 0.0 true true 0 (K\))]
[(Helvetica) 144.0 90.0 true true 0 (2)]
] -60.0 MCshow
grestore
LTb
LCb setrgbcolor
3932 126 M
[ [(Helvetica) 180.0 0.0 true true 0 (Multipole l)]
] -60.0 MCshow
LTb
3932 4769 M
[ [(Helvetica) 180.0 0.0 true true 0 (CMB anisotropies)]
] -60.0 MCshow
1.000 UP
1.000 UL
LTb
% Begin plot #1
3.000 UL
LT0
LCb setrgbcolor
6056 4346 M
[ [(Helvetica) 180.0 0.0 true true 0 (Model)]
] -60.0 MRshow
LT0
6164 4346 M
495 0 V
1433 1773 M
259 -45 V
184 -41 V
142 -32 V
117 -23 V
98 -16 V
86 -11 V
75 -7 V
67 -4 V
61 -1 V
56 0 V
51 2 V
47 3 V
44 3 V
42 4 V
38 5 V
37 6 V
34 7 V
33 6 V
31 7 V
30 8 V
28 7 V
28 8 V
26 8 V
25 8 V
24 8 V
23 8 V
23 9 V
21 9 V
21 8 V
20 9 V
20 10 V
19 9 V
19 9 V
18 10 V
17 9 V
17 10 V
17 10 V
16 10 V
16 10 V
15 10 V
15 11 V
15 10 V
14 10 V
14 11 V
14 11 V
14 10 V
13 11 V
13 11 V
12 11 V
13 12 V
12 11 V
12 12 V
12 11 V
11 12 V
11 11 V
11 12 V
11 12 V
11 12 V
11 13 V
10 12 V
10 12 V
10 13 V
10 13 V
10 13 V
10 13 V
9 13 V
9 13 V
10 13 V
9 13 V
9 14 V
8 14 V
9 13 V
9 15 V
8 14 V
8 14 V
9 15 V
8 14 V
8 15 V
8 15 V
8 14 V
7 16 V
8 15 V
8 15 V
7 16 V
8 15 V
7 16 V
7 16 V
7 16 V
7 16 V
7 16 V
7 16 V
7 16 V
7 17 V
6 17 V
7 16 V
7 17 V
6 17 V
7 17 V
6 17 V
6 18 V
6 17 V
7 18 V
stroke 3958 2682 M
6 17 V
6 18 V
6 18 V
6 18 V
6 18 V
5 18 V
6 18 V
6 18 V
6 18 V
5 19 V
6 18 V
5 19 V
6 18 V
5 19 V
6 19 V
5 19 V
5 18 V
6 19 V
5 19 V
5 19 V
5 19 V
5 19 V
5 18 V
5 19 V
5 19 V
5 19 V
5 19 V
5 19 V
5 19 V
5 19 V
4 19 V
5 18 V
5 19 V
4 19 V
5 19 V
4 18 V
5 19 V
5 18 V
4 19 V
4 18 V
5 18 V
4 18 V
5 18 V
4 18 V
4 18 V
5 18 V
4 17 V
4 18 V
4 17 V
4 17 V
5 18 V
4 17 V
4 16 V
4 17 V
4 17 V
4 17 V
4 16 V
4 16 V
4 16 V
4 16 V
3 16 V
4 16 V
4 15 V
4 16 V
4 15 V
4 15 V
3 14 V
4 15 V
4 14 V
3 14 V
4 14 V
4 14 V
3 13 V
4 13 V
4 13 V
3 13 V
4 12 V
3 12 V
4 12 V
3 12 V
4 11 V
3 11 V
3 11 V
4 10 V
3 11 V
4 10 V
3 9 V
3 10 V
4 9 V
3 8 V
3 9 V
3 8 V
4 8 V
3 8 V
3 7 V
3 7 V
4 7 V
3 7 V
3 6 V
3 5 V
3 6 V
3 5 V
3 5 V
3 4 V
stroke 4400 4237 M
4 5 V
3 3 V
3 4 V
3 3 V
3 3 V
3 2 V
3 2 V
3 2 V
3 2 V
2 1 V
3 1 V
3 0 V
3 0 V
3 0 V
3 -1 V
3 -1 V
3 -1 V
2 -2 V
3 -2 V
3 -2 V
3 -3 V
3 -3 V
2 -3 V
3 -4 V
3 -4 V
3 -5 V
2 -4 V
3 -5 V
3 -6 V
3 -5 V
2 -6 V
3 -7 V
3 -7 V
2 -7 V
3 -7 V
2 -8 V
3 -8 V
3 -8 V
2 -8 V
3 -9 V
2 -9 V
3 -10 V
3 -10 V
2 -10 V
3 -10 V
2 -11 V
3 -11 V
2 -11 V
3 -11 V
2 -12 V
3 -12 V
2 -12 V
2 -13 V
3 -13 V
2 -13 V
3 -13 V
2 -13 V
3 -14 V
2 -14 V
2 -14 V
3 -14 V
2 -15 V
3 -15 V
2 -15 V
2 -15 V
3 -15 V
2 -16 V
2 -15 V
2 -16 V
3 -16 V
2 -17 V
2 -16 V
3 -17 V
2 -16 V
2 -17 V
2 -17 V
3 -17 V
2 -18 V
2 -17 V
2 -17 V
3 -18 V
2 -18 V
2 -17 V
2 -18 V
2 -18 V
3 -18 V
2 -18 V
2 -19 V
2 -18 V
2 -18 V
2 -19 V
2 -18 V
3 -19 V
2 -18 V
2 -19 V
2 -18 V
2 -19 V
2 -19 V
2 -18 V
2 -19 V
2 -19 V
2 -18 V
2 -19 V
3 -18 V
stroke 4660 3142 M
2 -19 V
2 -19 V
2 -18 V
2 -19 V
2 -18 V
2 -18 V
2 -19 V
2 -18 V
2 -18 V
2 -18 V
2 -18 V
2 -18 V
2 -18 V
2 -18 V
2 -18 V
1 -17 V
2 -18 V
2 -17 V
2 -17 V
2 -18 V
2 -17 V
2 -16 V
2 -17 V
2 -17 V
2 -16 V
2 -17 V
2 -16 V
1 -16 V
2 -16 V
2 -15 V
2 -16 V
2 -15 V
2 -15 V
2 -15 V
1 -15 V
2 -15 V
2 -14 V
2 -15 V
2 -14 V
2 -13 V
1 -14 V
2 -14 V
2 -13 V
2 -13 V
2 -13 V
1 -12 V
2 -13 V
2 -12 V
2 -12 V
1 -12 V
2 -11 V
2 -12 V
2 -11 V
2 -11 V
1 -10 V
2 -11 V
2 -10 V
1 -10 V
2 -10 V
2 -9 V
2 -9 V
1 -9 V
2 -9 V
2 -9 V
1 -8 V
2 -8 V
2 -8 V
2 -7 V
1 -7 V
2 -7 V
2 -7 V
1 -7 V
2 -6 V
2 -6 V
1 -6 V
2 -6 V
1 -5 V
2 -5 V
2 -5 V
1 -5 V
2 -4 V
2 -4 V
1 -4 V
2 -4 V
1 -3 V
2 -3 V
2 -3 V
1 -3 V
2 -3 V
1 -2 V
2 -2 V
2 -2 V
1 -2 V
2 -1 V
1 -1 V
2 -1 V
1 -1 V
2 -1 V
2 0 V
1 0 V
2 0 V
1 0 V
2 0 V
1 1 V
stroke 4843 2056 M
2 1 V
1 1 V
2 1 V
1 1 V
2 2 V
1 2 V
2 1 V
2 2 V
1 3 V
2 2 V
1 3 V
2 2 V
1 3 V
1 3 V
2 3 V
1 4 V
2 3 V
1 4 V
2 3 V
1 4 V
2 4 V
1 4 V
2 5 V
1 4 V
2 4 V
1 5 V
2 4 V
1 5 V
1 5 V
2 5 V
1 5 V
2 5 V
1 5 V
2 6 V
1 5 V
1 5 V
2 6 V
1 5 V
2 6 V
1 6 V
1 5 V
2 6 V
1 6 V
2 6 V
1 6 V
1 6 V
2 5 V
1 6 V
1 6 V
2 6 V
1 6 V
2 6 V
1 6 V
1 6 V
2 6 V
1 6 V
1 6 V
2 6 V
1 6 V
1 6 V
2 6 V
1 6 V
1 6 V
2 6 V
1 5 V
1 6 V
2 6 V
1 6 V
1 5 V
2 6 V
1 5 V
1 6 V
2 5 V
1 5 V
1 5 V
2 6 V
1 5 V
1 5 V
1 5 V
2 4 V
1 5 V
1 5 V
2 5 V
1 4 V
1 4 V
1 5 V
2 4 V
1 4 V
1 4 V
1 4 V
2 4 V
1 3 V
1 4 V
2 3 V
1 4 V
1 3 V
1 3 V
2 3 V
1 3 V
1 3 V
1 3 V
1 2 V
2 3 V
1 2 V
stroke 4986 2517 M
1 2 V
1 2 V
2 2 V
1 2 V
1 2 V
1 1 V
1 1 V
2 2 V
1 1 V
1 1 V
1 1 V
1 1 V
2 0 V
1 1 V
1 0 V
1 0 V
1 1 V
2 0 V
1 -1 V
1 0 V
1 0 V
1 -1 V
2 0 V
1 -1 V
1 -1 V
1 -1 V
1 -1 V
1 -1 V
2 -2 V
1 -1 V
1 -2 V
1 -1 V
1 -2 V
1 -2 V
2 -2 V
1 -2 V
1 -3 V
1 -2 V
1 -2 V
1 -3 V
1 -3 V
2 -2 V
1 -3 V
1 -3 V
1 -3 V
1 -4 V
1 -3 V
1 -3 V
1 -4 V
2 -3 V
1 -4 V
1 -4 V
1 -3 V
1 -4 V
1 -4 V
1 -4 V
1 -4 V
1 -5 V
2 -4 V
1 -4 V
1 -5 V
1 -4 V
1 -5 V
1 -4 V
1 -5 V
1 -4 V
1 -5 V
1 -5 V
2 -5 V
1 -4 V
1 -5 V
1 -5 V
1 -5 V
1 -5 V
1 -5 V
1 -5 V
1 -5 V
1 -5 V
1 -5 V
1 -5 V
1 -6 V
1 -5 V
2 -5 V
1 -5 V
1 -5 V
1 -5 V
1 -6 V
1 -5 V
1 -5 V
1 -5 V
1 -5 V
1 -5 V
1 -5 V
1 -5 V
1 -5 V
1 -5 V
1 -5 V
1 -5 V
1 -5 V
1 -5 V
1 -5 V
1 -5 V
1 -5 V
1 -5 V
stroke 5102 2217 M
1 -4 V
1 -5 V
1 -4 V
1 -5 V
2 -4 V
1 -5 V
1 -4 V
1 -5 V
1 -4 V
1 -4 V
1 -4 V
1 -4 V
1 -4 V
1 -4 V
1 -4 V
1 -4 V
1 -3 V
1 -4 V
1 -3 V
1 -4 V
1 -3 V
1 -3 V
1 -4 V
1 -3 V
1 -3 V
0 -3 V
1 -2 V
1 -3 V
1 -3 V
1 -2 V
1 -3 V
1 -2 V
1 -2 V
1 -2 V
1 -2 V
1 -2 V
1 -2 V
1 -2 V
1 -1 V
1 -2 V
1 -1 V
1 -2 V
1 -1 V
1 -1 V
1 -1 V
1 -1 V
1 0 V
1 -1 V
1 -1 V
1 0 V
1 0 V
1 -1 V
1 0 V
1 0 V
1 1 V
1 0 V
1 0 V
1 1 V
1 0 V
1 1 V
1 1 V
1 1 V
1 1 V
1 1 V
1 1 V
1 2 V
1 1 V
0 2 V
1 2 V
1 1 V
1 2 V
1 2 V
1 2 V
1 2 V
1 3 V
1 2 V
1 2 V
1 3 V
0 2 V
1 3 V
1 3 V
1 3 V
1 3 V
1 3 V
1 3 V
1 3 V
1 3 V
1 3 V
1 4 V
0 3 V
1 4 V
1 3 V
1 4 V
1 4 V
1 4 V
1 3 V
1 4 V
1 4 V
0 4 V
1 4 V
1 4 V
1 5 V
1 4 V
1 4 V
stroke 5202 2201 M
1 4 V
1 5 V
0 4 V
1 4 V
1 5 V
1 4 V
1 5 V
1 4 V
1 5 V
0 5 V
1 4 V
1 5 V
1 4 V
1 5 V
1 5 V
1 4 V
1 5 V
0 5 V
1 4 V
1 5 V
1 5 V
1 4 V
1 5 V
0 5 V
1 4 V
1 5 V
1 5 V
1 4 V
1 5 V
1 4 V
0 5 V
1 4 V
1 5 V
1 4 V
1 5 V
1 4 V
0 4 V
1 5 V
1 4 V
1 4 V
1 4 V
1 4 V
0 4 V
1 4 V
1 4 V
1 4 V
1 4 V
1 4 V
0 3 V
1 4 V
1 3 V
1 4 V
1 3 V
0 4 V
1 3 V
1 3 V
1 3 V
1 3 V
1 3 V
0 3 V
1 3 V
1 3 V
1 2 V
1 3 V
0 2 V
1 3 V
1 2 V
1 2 V
1 2 V
0 2 V
1 2 V
1 2 V
1 2 V
1 1 V
0 2 V
1 1 V
1 2 V
1 1 V
1 1 V
0 1 V
1 1 V
1 1 V
1 0 V
0 1 V
1 0 V
1 1 V
1 0 V
1 0 V
1 0 V
1 0 V
1 0 V
1 -1 V
1 -1 V
1 -1 V
1 -1 V
0 -1 V
1 -1 V
1 -1 V
1 -1 V
0 -2 V
1 -1 V
1 -2 V
1 -2 V
1 -1 V
stroke 5289 2480 M
0 -2 V
1 -3 V
1 -2 V
1 -2 V
0 -2 V
1 -3 V
1 -3 V
1 -2 V
0 -3 V
1 -3 V
1 -3 V
1 -3 V
0 -3 V
1 -4 V
1 -3 V
1 -4 V
0 -3 V
1 -4 V
1 -4 V
1 -4 V
0 -4 V
1 -4 V
1 -4 V
1 -5 V
0 -4 V
1 -5 V
1 -4 V
1 -5 V
0 -5 V
1 -4 V
1 -5 V
1 -5 V
0 -5 V
1 -5 V
1 -6 V
1 -5 V
0 -5 V
1 -6 V
1 -5 V
0 -6 V
1 -5 V
1 -6 V
1 -6 V
0 -6 V
1 -5 V
1 -6 V
1 -6 V
0 -6 V
1 -6 V
1 -6 V
0 -7 V
1 -6 V
1 -6 V
1 -6 V
0 -7 V
1 -6 V
1 -6 V
0 -7 V
1 -6 V
1 -7 V
1 -6 V
0 -7 V
1 -7 V
1 -6 V
0 -7 V
1 -6 V
1 -7 V
1 -7 V
0 -6 V
1 -7 V
1 -7 V
0 -7 V
1 -6 V
1 -7 V
0 -7 V
1 -6 V
1 -7 V
1 -7 V
0 -7 V
1 -6 V
1 -7 V
0 -7 V
1 -6 V
1 -7 V
0 -7 V
1 -6 V
1 -7 V
1 -6 V
0 -7 V
1 -6 V
1 -7 V
0 -6 V
1 -7 V
1 -6 V
0 -6 V
1 -7 V
1 -6 V
0 -6 V
1 -6 V
1 -7 V
0 -6 V
1 -6 V
1 -6 V
1 -6 V
stroke 5364 1914 M
0 -6 V
1 -5 V
1 -6 V
0 -6 V
1 -6 V
1 -5 V
0 -6 V
1 -5 V
1 -6 V
0 -5 V
1 -6 V
1 -5 V
0 -5 V
1 -5 V
1 -5 V
0 -5 V
1 -5 V
1 -5 V
0 -5 V
1 -5 V
1 -4 V
0 -5 V
1 -4 V
1 -5 V
0 -4 V
1 -4 V
1 -5 V
0 -4 V
1 -4 V
1 -4 V
0 -4 V
1 -4 V
1 -3 V
0 -4 V
1 -3 V
1 -4 V
0 -3 V
1 -4 V
1 -3 V
0 -3 V
1 -3 V
0 -3 V
1 -3 V
1 -3 V
0 -3 V
1 -2 V
1 -3 V
0 -2 V
1 -3 V
1 -2 V
0 -2 V
1 -3 V
1 -2 V
0 -2 V
1 -2 V
1 -1 V
0 -2 V
1 -2 V
0 -1 V
1 -2 V
1 -1 V
0 -2 V
1 -1 V
1 -1 V
0 -1 V
1 -1 V
1 -1 V
0 -1 V
1 -1 V
0 -1 V
1 0 V
1 -1 V
0 -1 V
1 0 V
1 0 V
0 -1 V
1 0 V
1 0 V
1 0 V
1 0 V
1 0 V
1 1 V
1 0 V
1 1 V
1 1 V
1 0 V
0 1 V
1 1 V
0 1 V
1 0 V
1 1 V
0 1 V
1 1 V
1 1 V
0 1 V
1 1 V
0 2 V
1 1 V
1 1 V
0 1 V
1 2 V
0 1 V
1 1 V
1 2 V
stroke 5434 1692 M
0 1 V
1 2 V
1 1 V
0 2 V
1 1 V
0 2 V
1 2 V
1 1 V
0 2 V
1 2 V
0 1 V
1 2 V
1 2 V
0 2 V
1 1 V
0 2 V
1 2 V
1 2 V
0 2 V
1 1 V
0 2 V
1 2 V
1 2 V
0 2 V
1 2 V
0 1 V
1 2 V
1 2 V
0 2 V
1 2 V
0 2 V
1 1 V
1 2 V
0 2 V
1 2 V
0 1 V
1 2 V
0 2 V
1 2 V
1 1 V
0 2 V
1 2 V
0 1 V
1 2 V
1 1 V
0 2 V
1 2 V
0 1 V
1 2 V
0 1 V
1 1 V
1 2 V
0 1 V
1 2 V
0 1 V
1 1 V
1 1 V
0 2 V
1 1 V
0 1 V
1 1 V
0 1 V
1 1 V
1 1 V
0 1 V
1 1 V
0 1 V
1 0 V
0 1 V
1 1 V
1 1 V
1 1 V
1 1 V
1 1 V
1 0 V
1 1 V
1 0 V
1 0 V
1 0 V
1 0 V
1 0 V
1 0 V
0 -1 V
1 0 V
1 -1 V
1 -1 V
1 -1 V
1 -1 V
0 -1 V
1 -1 V
1 0 V
0 -1 V
1 -1 V
0 -1 V
1 -1 V
0 -1 V
1 -1 V
0 -2 V
1 -1 V
1 -1 V
0 -1 V
1 -2 V
0 -1 V
1 -2 V
stroke 5501 1781 M
0 -1 V
1 -1 V
0 -2 V
1 -2 V
1 -1 V
0 -2 V
1 -2 V
0 -1 V
1 -2 V
0 -2 V
1 -2 V
0 -2 V
1 -2 V
0 -2 V
1 -2 V
1 -2 V
0 -2 V
1 -2 V
0 -2 V
1 -2 V
0 -2 V
1 -3 V
0 -2 V
1 -2 V
0 -2 V
1 -3 V
0 -2 V
1 -3 V
1 -2 V
0 -2 V
1 -3 V
0 -2 V
1 -3 V
0 -2 V
1 -3 V
0 -2 V
1 -3 V
0 -2 V
1 -3 V
0 -3 V
1 -2 V
0 -3 V
1 -3 V
0 -2 V
1 -3 V
1 -3 V
0 -2 V
1 -3 V
0 -3 V
1 -2 V
0 -3 V
1 -3 V
0 -2 V
1 -3 V
0 -3 V
1 -2 V
0 -3 V
1 -3 V
0 -3 V
1 -2 V
0 -3 V
1 -3 V
0 -2 V
1 -3 V
1 -3 V
0 -2 V
1 -3 V
0 -2 V
1 -3 V
0 -3 V
1 -2 V
0 -3 V
1 -2 V
0 -3 V
1 -2 V
0 -3 V
1 -2 V
0 -3 V
1 -2 V
0 -3 V
1 -2 V
0 -2 V
1 -3 V
0 -2 V
1 -2 V
0 -3 V
1 -2 V
0 -2 V
1 -2 V
0 -3 V
1 -2 V
0 -2 V
1 -2 V
0 -2 V
1 -2 V
0 -2 V
1 -2 V
0 -2 V
1 -2 V
0 -2 V
1 -2 V
0 -1 V
1 -2 V
0 -2 V
stroke 5555 1541 M
1 -2 V
0 -1 V
1 -2 V
0 -2 V
1 -1 V
0 -2 V
1 -1 V
0 -2 V
1 -1 V
0 -2 V
1 -1 V
0 -1 V
1 -2 V
0 -1 V
1 -1 V
0 -1 V
1 -1 V
0 -1 V
1 -1 V
0 -1 V
1 -1 V
0 -1 V
1 -1 V
0 -1 V
1 -1 V
0 -1 V
1 0 V
0 -1 V
1 -1 V
1 -1 V
0 -1 V
1 0 V
0 -1 V
1 0 V
0 -1 V
1 0 V
1 -1 V
1 0 V
1 0 V
0 -1 V
1 0 V
1 0 V
1 0 V
1 1 V
1 0 V
1 0 V
0 1 V
1 0 V
1 1 V
1 1 V
1 1 V
1 1 V
1 1 V
0 1 V
1 0 V
0 1 V
1 0 V
0 1 V
1 1 V
0 1 V
1 0 V
0 1 V
1 1 V
0 1 V
1 1 V
1 1 V
0 1 V
0 1 V
1 1 V
0 1 V
1 1 V
0 1 V
1 1 V
0 1 V
1 1 V
0 1 V
1 1 V
0 1 V
1 1 V
0 1 V
1 1 V
0 1 V
0 1 V
1 1 V
0 1 V
1 1 V
0 1 V
1 1 V
0 1 V
1 1 V
0 1 V
1 1 V
0 1 V
1 1 V
0 1 V
1 1 V
0 1 V
0 1 V
1 1 V
0 1 V
1 1 V
0 1 V
1 1 V
0 1 V
stroke 5613 1555 M
1 1 V
1 1 V
0 1 V
1 1 V
0 1 V
0 1 V
1 1 V
0 1 V
1 0 V
0 1 V
1 1 V
0 1 V
1 0 V
0 1 V
1 1 V
0 1 V
1 1 V
1 1 V
0 1 V
1 0 V
0 1 V
1 0 V
0 1 V
1 0 V
0 1 V
1 0 V
0 1 V
1 0 V
1 1 V
1 0 V
0 1 V
1 0 V
1 0 V
1 0 V
1 0 V
1 0 V
1 0 V
0 -1 V
1 0 V
1 0 V
0 -1 V
1 0 V
0 -1 V
1 0 V
0 -1 V
1 0 V
1 -1 V
0 -1 V
1 -1 V
1 -1 V
0 -1 V
1 -1 V
1 -1 V
0 -1 V
0 -1 V
1 -1 V
0 -1 V
1 -1 V
0 -1 V
1 -1 V
0 -1 V
0 -1 V
1 -1 V
0 -1 V
1 -1 V
0 -1 V
1 -1 V
0 -1 V
1 -2 V
0 -1 V
0 -1 V
1 -1 V
0 -2 V
1 -1 V
0 -1 V
1 -2 V
0 -1 V
0 -2 V
1 -1 V
0 -2 V
1 -1 V
0 -2 V
1 -1 V
0 -2 V
0 -1 V
1 -2 V
0 -1 V
1 -2 V
0 -2 V
1 -1 V
0 -2 V
0 -2 V
1 -1 V
0 -2 V
1 -2 V
0 -1 V
1 -2 V
0 -2 V
0 -2 V
1 -2 V
0 -1 V
1 -2 V
0 -2 V
0 -2 V
stroke 5667 1495 M
1 -2 V
0 -2 V
1 -1 V
0 -2 V
1 -2 V
0 -2 V
0 -2 V
1 -2 V
0 -2 V
1 -2 V
0 -1 V
1 -2 V
0 -2 V
0 -2 V
1 -2 V
0 -2 V
1 -2 V
0 -2 V
0 -2 V
1 -2 V
0 -2 V
1 -2 V
0 -1 V
1 -2 V
0 -2 V
0 -2 V
1 -2 V
0 -2 V
1 -2 V
0 -2 V
0 -2 V
1 -1 V
0 -2 V
1 -2 V
0 -2 V
1 -2 V
0 -2 V
0 -2 V
1 -1 V
0 -2 V
1 -2 V
0 -2 V
0 -2 V
1 -1 V
0 -2 V
1 -2 V
0 -2 V
0 -1 V
1 -2 V
0 -2 V
1 -1 V
0 -2 V
1 -2 V
0 -1 V
0 -2 V
1 -2 V
0 -1 V
1 -2 V
0 -1 V
0 -2 V
1 -1 V
0 -2 V
1 -1 V
0 -2 V
0 -1 V
1 -2 V
0 -1 V
1 -1 V
0 -2 V
0 -1 V
1 -2 V
0 -1 V
1 -1 V
0 -1 V
0 -2 V
1 -1 V
0 -1 V
1 -1 V
0 -2 V
0 -1 V
1 -1 V
0 -1 V
1 -1 V
0 -1 V
0 -1 V
1 -1 V
0 -1 V
1 -1 V
0 -1 V
0 -1 V
1 -1 V
0 -1 V
1 -1 V
0 -1 V
1 -1 V
0 -1 V
1 -1 V
0 -1 V
1 -1 V
0 -1 V
1 0 V
0 -1 V
0 -1 V
1 0 V
stroke 5711 1337 M
0 -1 V
1 0 V
0 -1 V
1 -1 V
1 -1 V
0 -1 V
1 0 V
1 -1 V
1 -1 V
1 -1 V
1 0 V
1 0 V
0 -1 V
1 0 V
1 0 V
1 0 V
1 0 V
1 0 V
1 0 V
1 0 V
0 1 V
1 0 V
1 0 V
1 1 V
1 0 V
0 1 V
1 0 V
1 0 V
0 1 V
1 0 V
0 1 V
1 0 V
1 1 V
1 1 V
1 0 V
0 1 V
1 0 V
0 1 V
1 0 V
0 1 V
1 0 V
0 1 V
1 0 V
0 1 V
1 0 V
1 1 V
1 0 V
0 1 V
1 0 V
0 1 V
1 0 V
0 1 V
1 0 V
1 1 V
1 0 V
0 1 V
1 0 V
1 1 V
1 0 V
1 1 V
1 0 V
1 0 V
1 1 V
1 0 V
1 0 V
1 0 V
1 0 V
1 0 V
1 -1 V
1 0 V
1 0 V
0 -1 V
1 0 V
1 0 V
0 -1 V
1 0 V
1 -1 V
1 -1 V
1 -1 V
1 -1 V
1 -1 V
0 -1 V
1 0 V
0 -1 V
1 0 V
0 -1 V
1 -1 V
0 -1 V
1 0 V
0 -1 V
1 0 V
0 -1 V
0 -1 V
1 0 V
0 -1 V
1 -1 V
0 -1 V
1 -1 V
0 -1 V
1 -1 V
1 -1 V
0 -1 V
1 -1 V
0 -1 V
stroke 5784 1323 M
0 -1 V
1 0 V
0 -1 V
0 -1 V
1 0 V
0 -1 V
0 -1 V
1 -1 V
0 -1 V
1 -1 V
0 -1 V
1 -1 V
0 -1 V
1 -1 V
0 -1 V
1 -1 V
0 -1 V
1 -1 V
0 -1 V
0 -1 V
1 0 V
0 -1 V
0 -1 V
1 -1 V
0 -1 V
1 -1 V
0 -1 V
0 -1 V
1 0 V
0 -1 V
0 -1 V
1 -1 V
0 -1 V
1 0 V
0 -1 V
0 -1 V
1 -1 V
0 -1 V
1 -1 V
0 -1 V
1 -1 V
0 -1 V
1 -1 V
0 -1 V
0 -1 V
1 0 V
0 -1 V
0 -1 V
1 0 V
0 -1 V
0 -1 V
1 0 V
0 -1 V
0 -1 V
1 0 V
0 -1 V
0 -1 V
1 0 V
0 -1 V
0 -1 V
1 0 V
0 -1 V
1 -1 V
0 -1 V
1 -1 V
0 -1 V
1 0 V
0 -1 V
1 -1 V
0 -1 V
1 0 V
0 -1 V
1 -1 V
1 -1 V
0 -1 V
1 0 V
0 -1 V
1 0 V
0 -1 V
1 -1 V
1 -1 V
1 -1 V
1 -1 V
1 0 V
0 -1 V
1 0 V
0 -1 V
1 0 V
1 0 V
0 -1 V
1 0 V
1 0 V
1 -1 V
1 0 V
1 0 V
1 0 V
1 0 V
1 0 V
1 0 V
1 0 V
1 0 V
1 0 V
1 0 V
0 1 V
stroke 5838 1252 M
1 0 V
1 0 V
1 0 V
0 1 V
1 0 V
1 0 V
0 1 V
1 0 V
1 0 V
1 1 V
1 0 V
1 0 V
0 1 V
1 0 V
1 0 V
0 1 V
1 0 V
1 0 V
1 0 V
0 1 V
1 0 V
1 0 V
1 0 V
0 1 V
1 0 V
1 0 V
1 0 V
1 0 V
1 0 V
1 0 V
1 0 V
1 0 V
1 0 V
1 0 V
0 -1 V
1 0 V
1 0 V
1 -1 V
1 0 V
0 -1 V
1 0 V
1 0 V
0 -1 V
1 0 V
1 -1 V
1 -1 V
1 0 V
0 -1 V
1 0 V
0 -1 V
1 0 V
0 -1 V
1 -1 V
1 -1 V
1 -1 V
0 -1 V
1 0 V
0 -1 V
1 0 V
0 -1 V
1 0 V
0 -1 V
0 -1 V
1 0 V
0 -1 V
1 0 V
0 -1 V
1 -1 V
0 -1 V
1 0 V
0 -1 V
1 -1 V
0 -1 V
1 0 V
0 -1 V
1 -1 V
0 -1 V
1 0 V
0 -1 V
1 -1 V
0 -1 V
1 -1 V
0 -1 V
1 0 V
0 -1 V
1 0 V
0 -1 V
0 -1 V
1 0 V
0 -1 V
1 -1 V
0 -1 V
1 0 V
0 -1 V
1 -1 V
0 -1 V
1 0 V
0 -1 V
1 -1 V
0 -1 V
1 0 V
0 -1 V
1 -1 V
0 -1 V
stroke 5904 1212 M
1 0 V
0 -1 V
1 0 V
0 -1 V
1 -1 V
0 -1 V
1 0 V
% End plot #1
% Begin plot #2
1.000 UP
stroke
1.000 UL
LT1
LCb setrgbcolor
6056 4166 M
[ [(Helvetica) 180.0 0.0 true true 0 (WMAP3y)]
] -60.0 MRshow
LT1
6164 4166 M
495 0 V
-495 31 R
0 -62 V
495 62 R
0 -62 V
1433 769 M
0 971 V
1402 769 M
62 0 V
-62 971 R
62 0 V
228 -402 R
0 764 V
-31 -764 R
62 0 V
-62 764 R
62 0 V
153 -540 R
0 411 V
-31 -411 R
62 0 V
-62 411 R
62 0 V
228 -435 R
0 313 V
-31 -313 R
62 0 V
-62 313 R
62 0 V
228 -351 R
0 174 V
-31 -174 R
62 0 V
-62 174 R
62 0 V
204 -185 R
0 173 V
-31 -173 R
62 0 V
-62 173 R
62 0 V
140 -104 R
0 121 V
-31 -121 R
62 0 V
-62 121 R
62 0 V
134 -200 R
0 114 V
-31 -114 R
62 0 V
-62 114 R
62 0 V
100 70 R
0 101 V
-31 -101 R
62 0 V
-62 101 R
62 0 V
97 -31 R
0 101 V
-31 -101 R
62 0 V
-62 101 R
62 0 V
92 60 R
0 89 V
-31 -89 R
62 0 V
-62 89 R
62 0 V
86 -155 R
0 92 V
-31 -92 R
62 0 V
-62 92 R
62 0 V
67 1 R
0 95 V
-31 -95 R
62 0 V
-62 95 R
62 0 V
64 49 R
0 90 V
-31 -90 R
62 0 V
-62 90 R
62 0 V
69 50 R
0 92 V
-31 -92 R
62 0 V
-62 92 R
62 0 V
56 83 R
0 99 V
-31 -99 R
62 0 V
-62 99 R
62 0 V
45 52 R
0 103 V
-31 -103 R
62 0 V
stroke 3951 2531 M
-62 103 R
62 0 V
48 158 R
0 107 V
-31 -107 R
62 0 V
-62 107 R
62 0 V
45 103 R
0 109 V
-31 -109 R
62 0 V
-62 109 R
62 0 V
41 285 R
0 118 V
-31 -118 R
62 0 V
-62 118 R
62 0 V
35 52 R
0 123 V
-31 -123 R
62 0 V
-62 123 R
62 0 V
35 121 R
0 122 V
-31 -122 R
62 0 V
-62 122 R
62 0 V
36 183 R
0 122 V
-31 -122 R
62 0 V
-62 122 R
62 0 V
30 -29 R
0 119 V
-31 -119 R
62 0 V
-62 119 R
62 0 V
29 -99 R
0 112 V
-31 -112 R
62 0 V
-62 112 R
62 0 V
28 -271 R
0 96 V
-31 -96 R
62 0 V
-62 96 R
62 0 V
29 -396 R
0 83 V
-31 -83 R
62 0 V
-62 83 R
62 0 V
26 -600 R
0 67 V
-31 -67 R
62 0 V
-62 67 R
62 0 V
25 -581 R
0 52 V
-31 -52 R
62 0 V
-62 52 R
62 0 V
26 -436 R
0 42 V
-31 -42 R
62 0 V
-62 42 R
62 0 V
26 -315 R
0 38 V
-31 -38 R
62 0 V
-62 38 R
62 0 V
29 7 R
0 41 V
-31 -41 R
62 0 V
-62 41 R
62 0 V
29 194 R
0 51 V
-31 -51 R
62 0 V
-62 51 R
62 0 V
33 73 R
0 60 V
-31 -60 R
62 0 V
-62 60 R
62 0 V
stroke 5028 2545 M
35 -216 R
0 69 V
-31 -69 R
62 0 V
-62 69 R
62 0 V
43 -373 R
0 89 V
-31 -89 R
62 0 V
-62 89 R
62 0 V
54 45 R
0 139 V
-31 -139 R
62 0 V
-62 139 R
62 0 V
76 -15 R
0 262 V
-31 -262 R
62 0 V
-62 262 R
62 0 V
35 -672 R
0 1021 V
5364 1873 M
62 0 V
-62 1021 R
62 0 V
1433 1255 Pls
1692 1720 Pls
1876 1767 Pls
2135 1695 Pls
2394 1587 Pls
2629 1576 Pls
2800 1618 Pls
2965 1536 Pls
3096 1713 Pls
3224 1783 Pls
3347 1938 Pls
3464 1874 Pls
3562 1969 Pls
3657 2110 Pls
3757 2251 Pls
3844 2430 Pls
3920 2582 Pls
3999 2846 Pls
4075 3057 Pls
4147 3455 Pls
4213 3627 Pls
4279 3871 Pls
4346 4176 Pls
4407 4267 Pls
4467 4284 Pls
4526 4117 Pls
4586 3810 Pls
4643 3286 Pls
4699 2764 Pls
4756 2375 Pls
4813 2100 Pls
4873 2146 Pls
4933 2387 Pls
4997 2515 Pls
5063 2364 Pls
5137 2069 Pls
5222 2229 Pls
5329 2414 Pls
5395 2384 Pls
6411 4166 Pls
% End plot #2
1.000 UL
LTb
990 4499 N
990 576 L
5885 0 V
0 3923 V
-5885 0 V
Z stroke
1.000 UP
1.000 UL
LTb
stroke
grestore
end
showpage
%%Trailer
%%DocumentFonts: Symbol Helvetica
